<?xml version="1.0" encoding="UTF-8" standalone="no"?>
<!-- Created with Inkscape (http://www.inkscape.org/) -->

<svg
   xmlns:dc="http://purl.org/dc/elements/1.1/"
   xmlns:cc="http://creativecommons.org/ns#"
   xmlns:rdf="http://www.w3.org/1999/02/22-rdf-syntax-ns#"
   xmlns:svg="http://www.w3.org/2000/svg"
   xmlns="http://www.w3.org/2000/svg"
   xmlns:sodipodi="http://sodipodi.sourceforge.net/DTD/sodipodi-0.dtd"
   xmlns:inkscape="http://www.inkscape.org/namespaces/inkscape"
   width="80mm"
   height="80mm"
   viewBox="0 0 80 80"
   version="1.1"
   id="svg4667"
   inkscape:version="0.92.4 (5da689c313, 2019-01-14)"
   sodipodi:docname="R2.svg">
  <defs
     id="defs4661" />
  <sodipodi:namedview
     id="base"
     pagecolor="#ffffff"
     bordercolor="#666666"
     borderopacity="1.0"
     inkscape:pageopacity="0.0"
     inkscape:pageshadow="2"
     inkscape:zoom="0.35"
     inkscape:cx="103.7552"
     inkscape:cy="231.74066"
     inkscape:document-units="mm"
     inkscape:current-layer="layer1"
     showgrid="false"
     inkscape:window-width="863"
     inkscape:window-height="675"
     inkscape:window-x="844"
     inkscape:window-y="105"
     inkscape:window-maximized="0" />
  <metadata
     id="metadata4664">
    <rdf:RDF>
      <cc:Work
         rdf:about="">
        <dc:format>image/svg+xml</dc:format>
        <dc:type
           rdf:resource="http://purl.org/dc/dcmitype/StillImage" />
        <dc:title />
      </cc:Work>
    </rdf:RDF>
  </metadata>
  <g
     inkscape:label="Ebene 1"
     inkscape:groupmode="layer"
     id="layer1"
     transform="translate(0,-217)">
    <path
       inkscape:connector-curvature="0"
       d="m 36.555841,254.21407 q 5.210709,0 7.450018,-1.93787 2.282381,-1.93786 2.282381,-6.37342 0,-4.3925 -2.282381,-6.2873 -2.239309,-1.89481 -7.450018,-1.89481 h -6.976319 v 16.4934 z m -6.976319,11.45494 V 290 H 13 v -64.2941 h 25.321453 q 12.703788,0 18.603518,4.26331 5.94279,4.26331 5.94279,13.47894 0,6.37342 -3.10059,10.46447 -3.05752,4.09105 -9.25869,6.02892 3.40203,0.77515 6.07198,3.53122 2.71301,2.71302 5.46909,8.26823 L 71.049861,290 h -17.65611 l -7.8376,-15.97663 q -2.3685,-4.82313 -4.823132,-6.58875 -2.411566,-1.76561 -6.459553,-1.76561 z"
       style="font-style:normal;font-variant:normal;font-weight:bold;font-stretch:normal;font-size:333.33334351px;line-height:1.25;font-family:sans-serif;-inkscape-font-specification:'sans-serif, Bold';font-variant-ligatures:normal;font-variant-caps:normal;font-variant-numeric:normal;font-feature-settings:normal;text-align:start;letter-spacing:0px;word-spacing:0px;writing-mode:lr-tb;text-anchor:start;fill:#af3628;fill-opacity:1;stroke:none;stroke-width:0.26458332"
       id="path3741" />
  </g>
</svg>
