<?xml version="1.0" encoding="UTF-8" standalone="no"?>
<!-- Created with Inkscape (http://www.inkscape.org/) -->

<svg
   xmlns:dc="http://purl.org/dc/elements/1.1/"
   xmlns:cc="http://creativecommons.org/ns#"
   xmlns:rdf="http://www.w3.org/1999/02/22-rdf-syntax-ns#"
   xmlns:svg="http://www.w3.org/2000/svg"
   xmlns="http://www.w3.org/2000/svg"
   xmlns:sodipodi="http://sodipodi.sourceforge.net/DTD/sodipodi-0.dtd"
   xmlns:inkscape="http://www.inkscape.org/namespaces/inkscape"
   width="80mm"
   height="80mm"
   viewBox="0 0 80 80"
   version="1.1"
   id="svg5144"
   inkscape:version="0.92.4 (5da689c313, 2019-01-14)"
   sodipodi:docname="S.svg">
  <defs
     id="defs5138" />
  <sodipodi:namedview
     id="base"
     pagecolor="#ffffff"
     bordercolor="#666666"
     borderopacity="1.0"
     inkscape:pageopacity="0.0"
     inkscape:pageshadow="2"
     inkscape:zoom="1.4"
     inkscape:cx="-12.710503"
     inkscape:cy="96.055491"
     inkscape:document-units="mm"
     inkscape:current-layer="layer1"
     showgrid="false"
     inkscape:window-width="1920"
     inkscape:window-height="1017"
     inkscape:window-x="-8"
     inkscape:window-y="-8"
     inkscape:window-maximized="1" />
  <metadata
     id="metadata5141">
    <rdf:RDF>
      <cc:Work
         rdf:about="">
        <dc:format>image/svg+xml</dc:format>
        <dc:type
           rdf:resource="http://purl.org/dc/dcmitype/StillImage" />
        <dc:title></dc:title>
      </cc:Work>
    </rdf:RDF>
  </metadata>
  <g
     inkscape:label="Ebene 1"
     inkscape:groupmode="layer"
     id="layer1"
     transform="translate(0,-217)">
    <path
       inkscape:connector-curvature="0"
       d="m 60.686732,226.76014 v 13.60813 q -5.296834,-2.36851 -10.335286,-3.57429 -5.038453,-1.20578 -9.517076,-1.20578 -5.942791,0 -8.784995,1.63642 -2.842204,1.63642 -2.842204,5.08151 0,2.58383 1.894803,4.04799 1.937866,1.4211 6.976319,2.45463 l 7.062446,1.4211 q 10.722861,2.15319 15.244548,6.54569 4.521687,4.39249 4.521687,12.48847 0,10.63673 -6.330363,15.84744 -6.287299,5.16764 -19.249472,5.16764 -6.115045,0 -12.273153,-1.16272 -6.158107,-1.16272 -12.316215,-3.44509 v -13.99571 q 6.158108,3.27284 11.885579,4.95233 5.770536,1.63642 11.110434,1.63642 5.426025,0 8.311293,-1.80867 2.885268,-1.80868 2.885268,-5.16765 0,-3.01446 -1.98093,-4.65088 -1.937867,-1.63642 -7.79453,-2.92833 l -6.41649,-1.4211 q -9.646266,-2.06706 -14.124891,-6.58874 -4.43556,-4.52169 -4.43556,-12.18703 0,-9.60321 6.201172,-14.77085 6.201171,-5.16764 17.828367,-5.16764 5.296834,0 10.895116,0.81821 5.598279,0.77514 11.584133,2.3685 z"
       style="font-style:normal;font-variant:normal;font-weight:bold;font-stretch:normal;font-size:333.33334351px;line-height:1.25;font-family:sans-serif;-inkscape-font-specification:'sans-serif, Bold';font-variant-ligatures:normal;font-variant-caps:normal;font-variant-numeric:normal;font-feature-settings:normal;text-align:start;letter-spacing:0px;word-spacing:0px;writing-mode:lr-tb;text-anchor:start;fill:#af3628;fill-opacity:1;stroke:none;stroke-width:0.26458332"
       id="path3739"
       inkscape:transform-center-x="-13.363476"
       inkscape:transform-center-y="8.2853554" />
  </g>
</svg>
